<svg width="24" height="24" viewBox="0 0 24 24" fill="none" xmlns="http://www.w3.org/2000/svg">
<g clip-path="url(#clip0_104_37276)">
<path d="M3 4H21V6H3V4ZM9 11H21V13H9V11ZM3 18H21V20H3V18Z" fill="#FF6D34"/>
</g>
<defs>
<clipPath id="clip0_104_37276">
<rect width="24" height="24" fill="white"/>
</clipPath>
</defs>
</svg>
